<?xml version="1.0" encoding="UTF-8" standalone="no"?>
<svg
   xmlns:dc="http://purl.org/dc/elements/1.1/"
   xmlns:cc="http://creativecommons.org/ns#"
   xmlns:rdf="http://www.w3.org/1999/02/22-rdf-syntax-ns#"
   xmlns:svg="http://www.w3.org/2000/svg"
   xmlns="http://www.w3.org/2000/svg"
   xmlns:sodipodi="http://sodipodi.sourceforge.net/DTD/sodipodi-0.dtd"
   xmlns:inkscape="http://www.inkscape.org/namespaces/inkscape"
   version="1.1"
   width="560"
   height="84"
   id="svg4202"
   inkscape:version="0.91 r13725"
   sodipodi:docname="cssf_banner.svg"
   inkscape:export-filename="/Users/colin/Source/Code and Supply/fund/codeandsupply.fund/hugo/static/img/logo.png"
   inkscape:export-xdpi="90"
   inkscape:export-ydpi="90">
  <metadata
     id="metadata4218">
    <rdf:RDF>
      <cc:Work
         rdf:about="">
        <dc:format>image/svg+xml</dc:format>
        <dc:type
           rdf:resource="http://purl.org/dc/dcmitype/StillImage" />
        <dc:title />
      </cc:Work>
    </rdf:RDF>
  </metadata>
  <defs
     id="defs4216" />
  <sodipodi:namedview
     pagecolor="#ffffff"
     bordercolor="#666666"
     borderopacity="1"
     objecttolerance="10"
     gridtolerance="10"
     guidetolerance="10"
     inkscape:pageopacity="0"
     inkscape:pageshadow="2"
     inkscape:window-width="1180"
     inkscape:window-height="731"
     id="namedview4214"
     showgrid="false"
     fit-margin-top="0"
     fit-margin-left="0"
     fit-margin-right="0"
     fit-margin-bottom="0"
     inkscape:zoom="0.73"
     inkscape:cx="293.0107"
     inkscape:cy="40.265194"
     inkscape:window-x="0"
     inkscape:window-y="0"
     inkscape:window-maximized="0"
     inkscape:current-layer="svg4202" />
  <g
     id="g4220"
     transform="matrix(0.19946548,0,0,0.19946548,0,-115.46548)"
     inkscape:export-xdpi="34.285713"
     inkscape:export-ydpi="34.285713">
    <polygon
       transform="translate(-131.5,548.43723)"
       style="fill:#b22d00;stroke:#b22d00;stroke-width:15"
       id="polygon4206"
       points="571,416 355,444 139,416 139,66 355,38 571,66 " />
    <text
       style="font-size:160px;font-family:Futura;text-anchor:start;fill:#ffffff"
       id="text4208"
       font-size="160"
       y="793.43726"
       x="22.5">C</text>
    <text
       style="font-size:400px;font-family:Futura;text-anchor:middle;fill:#ffffff"
       id="text4210"
       font-size="400"
       y="948.43726"
       x="239.5">&amp;</text>
    <text
       style="font-size:160px;font-family:Futura;text-anchor:end;fill:#ffffff"
       id="text4212"
       font-size="160"
       y="793.43726"
       x="423.5">S</text>
  </g>
  <text
     xml:space="preserve"
     style="font-style:normal;font-weight:normal;font-size:40px;line-height:125%;font-family:Sans;letter-spacing:0px;word-spacing:0px;fill:#b22d00;fill-opacity:1;stroke:none;stroke-width:1px;stroke-linecap:butt;stroke-linejoin:miter;stroke-opacity:1"
     x="94.978516"
     y="63.306499"
     id="text4145"
     sodipodi:linespacing="125%"
     inkscape:export-xdpi="34.285713"
     inkscape:export-ydpi="34.285713"><tspan
       sodipodi:role="line"
       id="tspan4147"
       x="94.978516"
       y="63.306499"
       style="font-style:normal;font-variant:normal;font-weight:bold;font-stretch:normal;font-size:60px;font-family:Roboto;-inkscape-font-specification:'Roboto Bold';fill:#b22d00;fill-opacity:1">Scholarship Fund</tspan></text>
</svg>
